{
    "labels": ["renovate"],
    "ignorePaths": ["android/**"],
    "packageRules": [
        {
        "labels": ["docker-autoupdate"],
        "automerge": true,
        "matchUpdateTypes": ["digest"],
        "matchManagers": ["dockerfile"],
        "packagePatterns": ["^containers\\.torproject\\.org"]
        },
        {
        "labels": ["docker-update"],
        "automerge": false,
        "matchUpdateTypes": ["digest"],
        "matchManagers": ["dockerfile"],
        "excludePackagePatterns": ["^containers\\.torproject\\.org"]
        },
        {
            "matchUpdateTypes": ["major"],
            "labels": ["renovate::major"]
        },
        {
            "matchUpdateTypes": ["minor"],
            "labels": ["renovate::minor"]
        },
        {
            "description": "Group patch updates and automatically merge them",
            "groupName": "Patch dependencies",
            "matchPackagePatterns": ["*"],
            "matchUpdateTypes": ["patch"],
            "labels": ["renovate::patch"],
            "automerge": true,
            "schedule": ["on the 2nd and 4th day instance on sunday after 9pm"]
        }
    ],
    "$schema": "https://docs.renovatebot.com/renovate-schema.json",
    "extends": [
        "config:recommended"
    ]
}
